-------------------- Auto-Git Log --------------------
		Fri Feb 28 2020 03:46:01 GMT+0700 (Western Indonesia Time)
------------------------------------------------------

Modified files:
* src/app/tambah-obs/tambah-obs.page.ts


Created files:
* .autogit/logs/log-28-1-2020-3-15-55.txt


Deleted files:


Renamed files:
