-------------------- Auto-Git Log --------------------
		Sun Mar 01 2020 07:33:00 GMT+0700 (Western Indonesia Time)
------------------------------------------------------

Modified files:


Created files:
* .autogit/logs/log-29-1-2020-17-39-12.txt


Deleted files:


Renamed files:
