-------------------- Auto-Git Log --------------------
		Thu Mar 05 2020 07:46:33 GMT+0700 (Western Indonesia Time)
------------------------------------------------------

Modified files:


Created files:
* .autogit/logs/log-5-2-2020-7-16-25.txt


Deleted files:


Renamed files:
