-------------------- Auto-Git Log --------------------
		Thu Feb 20 2020 02:22:11 GMT+0700 (Western Indonesia Time)
------------------------------------------------------

Modified files:


Created files:
* .autogit/logs/log-20-1-2020-1-52-6.txt


Deleted files:


Renamed files:
