-------------------- Auto-Git Log --------------------
		Thu Feb 20 2020 13:42:06 GMT+0700 (Western Indonesia Time)
------------------------------------------------------

Modified files:


Created files:
* .autogit/logs/log-20-1-2020-4-22-36.txt


Deleted files:


Renamed files:
