-------------------- Auto-Git Log --------------------
		Wed Feb 19 2020 07:49:32 GMT+0700 (Western Indonesia Time)
------------------------------------------------------

Modified files:
* src/app/login/login.page.ts


Created files:
* .autogit/logs/log-19-1-2020-6-49-20.txt


Deleted files:


Renamed files:
