-------------------- Auto-Git Log --------------------
		Fri Feb 28 2020 04:16:07 GMT+0700 (Western Indonesia Time)
------------------------------------------------------

Modified files:
* src/app/tambah-obs/tambah-obs.page.html
* src/app/tambah-obs/tambah-obs.page.ts


Created files:
* .autogit/logs/log-28-1-2020-3-46-1.txt


Deleted files:


Renamed files:
