-------------------- Auto-Git Log --------------------
		Wed Mar 04 2020 15:25:46 GMT+0700 (Western Indonesia Time)
------------------------------------------------------

Modified files:


Created files:
* .autogit/logs/log-4-2-2020-14-25-31.txt


Deleted files:


Renamed files:
