-------------------- Auto-Git Log --------------------
		Thu Mar 05 2020 10:51:31 GMT+0700 (Western Indonesia Time)
------------------------------------------------------

Modified files:


Created files:
* .autogit/logs/log-5-2-2020-8-16-41.txt


Deleted files:


Renamed files:
