-------------------- Auto-Git Log --------------------
		Wed Feb 19 2020 06:49:20 GMT+0700 (Western Indonesia Time)
------------------------------------------------------

Modified files:


Created files:
* .autogit/logs/log-19-1-2020-6-19-14.txt


Deleted files:


Renamed files:
