-------------------- Auto-Git Log --------------------
		Wed Feb 26 2020 20:02:22 GMT+0700 (Western Indonesia Time)
------------------------------------------------------

Modified files:
* src/app/edit-obs/edit-obs.page.html
* src/app/home/home.page.html
* src/app/review-tl/review-tl.page.html
* src/app/review-tl/review-tl.page.ts
* src/app/set-pic-obs/set-pic-obs.page.ts
* src/app/tambah-obs/tambah-obs.page.html
* src/app/tambah-obs/tambah-obs.page.ts
* src/app/tindak-lanjut-pic/tindak-lanjut-pic.page.html


Created files:
* .autogit/logs/log-26-1-2020-19-32-16.txt


Deleted files:


Renamed files:
