-------------------- Auto-Git Log --------------------
		Tue Mar 03 2020 23:55:33 GMT+0700 (Western Indonesia Time)
------------------------------------------------------

Modified files:


Created files:
* .autogit/logs/log-3-2-2020-23-25-25.txt


Deleted files:


Renamed files:
