-------------------- Auto-Git Log --------------------
		Wed Feb 26 2020 18:05:20 GMT+0700 (Western Indonesia Time)
------------------------------------------------------

Modified files:


Created files:
* .autogit/logs/log-26-1-2020-17-35-18.txt


Deleted files:


Renamed files:
