-------------------- Auto-Git Log --------------------
		Tue Feb 04 2020 10:16:08 GMT+0700 (Western Indonesia Time)
------------------------------------------------------

Modified files:
* src/app/app-routing.module.ts


Created files:
* .autogit/logs/log-4-1-2020-9-46-3.txt


Deleted files:


Renamed files:
