-------------------- Auto-Git Log --------------------
		Thu Feb 20 2020 23:13:55 GMT+0700 (Western Indonesia Time)
------------------------------------------------------

Modified files:


Created files:
* .autogit/logs/log-20-1-2020-22-43-49.txt


Deleted files:


Renamed files:
