-------------------- Auto-Git Log --------------------
		Thu Feb 20 2020 01:21:59 GMT+0700 (Western Indonesia Time)
------------------------------------------------------

Modified files:


Created files:
* .autogit/logs/log-20-1-2020-0-51-53.txt


Deleted files:


Renamed files:
