-------------------- Auto-Git Log --------------------
		Fri Feb 28 2020 00:45:40 GMT+0700 (Western Indonesia Time)
------------------------------------------------------

Modified files:


Created files:
* .autogit/logs/log-27-1-2020-17-44-38.txt


Deleted files:


Renamed files:
