-------------------- Auto-Git Log --------------------
		Mon Feb 03 2020 18:30:35 GMT+0700 (Western Indonesia Time)
------------------------------------------------------

Modified files:


Created files:
* .autogit/logs/log-3-1-2020-18-0-29.txt


Deleted files:


Renamed files:
