-------------------- Auto-Git Log --------------------
		Mon Feb 03 2020 14:22:06 GMT+0700 (Western Indonesia Time)
------------------------------------------------------

Modified files:
* src/app/home/home.page.ts
* src/app/tambah-obs/tambah-obs.page.html
* src/app/tambah-obs/tambah-obs.page.ts


Created files:
* .autogit/logs/log-3-1-2020-13-52-0.txt


Deleted files:


Renamed files:
